0,,"Proceso terminado con los siguientes errores.",ERROR
Registro,Columna,"Tipo de Error","Estatus del Registro"
2,Telefono3,"NO ES UN VALOR NUMERICO",
2,Telefono4,"NO ES UN VALOR NUMERICO",
2,,,ACTUALIZADO
3,Telefono3,"NO ES UN VALOR NUMERICO",
3,Telefono4,"NO ES UN VALOR NUMERICO",
3,Codigo,"NO ES UN VALOR NUMERICO",
3,Codigo,"NO SE ENCUENTRO EL CODIGO",
3,,,ERROR
4,Telefono3,"NO ES UN VALOR NUMERICO",
4,Telefono4,"NO ES UN VALOR NUMERICO",
4,,,ACTUALIZADO
5,Telefono3,"NO ES UN VALOR NUMERICO",
5,Telefono4,"NO ES UN VALOR NUMERICO",
5,Codigo,"NO ES UN VALOR NUMERICO",
5,Codigo,"NO SE ENCUENTRO EL CODIGO",
5,,,ERROR
6,Telefono3,"NO ES UN VALOR NUMERICO",
6,Telefono4,"NO ES UN VALOR NUMERICO",
6,,,ACTUALIZADO
7,Telefono1,"NO ES UN VALOR NUMERICO",
7,Telefono3,"NO ES UN VALOR NUMERICO",
7,Telefono4,"NO ES UN VALOR NUMERICO",
7,Distrito,"NO SE ENCUENTRO EL DISTRITO",
7,,,ERROR
TotalCargados,3,Nuevos,0,Actualizados,3
