{
	"Predeterminado": {
		"Doctrine" : { 
			"dbname" : "base_datos",
			"user" : "usuario",
			"password" : "password",
			"host" : "localhost",
			"driver" : "pdo_mysql",
			"charset" : "utf8"
		},
		"PDO" : { 
			"dns" : "mysql:host=localhost;dbname=base_datos",
			"user" : "usuario",
			"password" : "password",
			"parametros" : false
		}
	},
	"Zicom": {
	  "Doctrine" : {
		"dbname" : "sitios_zicom",
		"user" : "sitios_zicom",
		"password" : "r29a76",
		"host" : "localhost",
		"driver" : "pdo_mysql",
		"charset" : "utf8"
	  },
	  "PDO" : {
		"dns" : "mysql:host=localhost;dbname=sitios_zicom",
		"user" : "sitios_zicom",
		"password" : "r29a76",
		"parametros" : false
	  }
	}
}